module gitlab.com/tty8747/wap-front

go 1.18

require (
	github.com/gofiber/fiber/v2 v2.37.0
	github.com/gofiber/template v1.7.0
)

require (
	github.com/andybalholm/brotli v1.0.4 // indirect
	github.com/klauspost/compress v1.15.0 // indirect
	github.com/valyala/bytebufferpool v1.0.0 // indirect
	github.com/valyala/fasthttp v1.39.0 // indirect
	github.com/valyala/tcplisten v1.0.0 // indirect
	golang.org/x/sys v0.0.0-20220227234510-4e6760a101f9 // indirect
)
